Download Data From Estonian Health Statistics And Health Research Database • boulder
…
Parse data from json file manually downloaded from Estonian Health Statistics Database into a data.frame.

library(boulder)

path_to_PK10.json <- system.file("extdata", "PK10.json", package = "boulder", mustWork = TRUE)
pk10 <- json_to_df(path_to_PK10.json)
#> Data source is Estonian Cancer Registry.

Download table “RK01” from database:

library(boulder)
tabs <- get_all_tables(lang = "en")
tabs
#> # A tibble: 1,685 x 5
#>       Database      Node  Name
#>          <chr>     <chr> <chr>
#>  1 01Rahvastik 03Abordid  RK01
#>  2 01Rahvastik 03Abordid  RK11
#>  3 01Rahvastik 03Abordid  RK20
#>  4 01Rahvastik 03Abordid  RK30
#>  5 01Rahvastik 03Abordid  RK40
#>  6 01Rahvastik 03Abordid  RK50
#>  7 01Rahvastik 03Abordid  RK61
#>  8 01Rahvastik 03Abordid  RK62
#>  9 01Rahvastik 03Abordid  RK63
#> 10 01Rahvastik  05Eluiga  OE12
#> # ... with 1,675 more rows, and 2 more variables: Title <chr>,
#> #   Updated <chr>

rk01 <- pull_table("RK01", lang = "en")
#> Warning: JSON string contains (illegal) UTF8 byte-order-mark!
rk01
#> # A tibble: 3,876 x 4
#>     Year  County    `Age group` Abortions
#>    <chr>   <chr>          <chr>     <dbl>
#>  1  2000 Estonia All age groups     15331
#>  2  2000 Estonia          10-14        20
#>  3  2000 Estonia          15-17       689
#>  4  2000 Estonia          18-19      1168
#>  5  2000 Estonia          20-24      3701
#>  6  2000 Estonia          25-29      3545
#>  7  2000 Estonia          30-34      2940
#>  8  2000 Estonia          35-39      2158
#>  9  2000 Estonia          40-44       996
#> 10  2000 Estonia          45-49       110
#> # ... with 3,866 more rows
…
